*************** Final propagation with the best field ****************
       => J1       =      0.94926
       => J        =      0.61505
       => J2       =     -0.33420
       => Fluence  =      0.33420
**********************************************************************
