Eigenvalues [H]
 #st  Spin   Eigenvalue      Occupation
   1   --    -9.438848       2.000000
   2   --    -0.485602       2.000000
   3   --    -0.203938       0.666667
   4   --    -0.203938       0.666667
   5   --    -0.203938       0.666667

Energy [H]:
      Total       =       -36.32037256
      Free        =       -36.32037256
