# -*- coding: utf-8 mode: shell-script -*-

FromScratch = yes
ExperimentalFeatures = yes

CalculationMode = gs

PseudopotentialSet = hgh_lda

%Coordinates
  "He" | 0 | 0 | 0
%

BoxShape = sphere
Radius  = 7.0
Spacing = 0.47
CurvMethod = curv_gygi
CurvGygiA = 0.80

DerivativesStencil = stencil_starplus
DerivativesOrder = 3

LCAOStart = no

PoissonSolver = cg_corrected

#for the moment OpenCL is not supported
DisableAccel = yes

FilterPotentials = filter_none

MixField = density

ConvAbsEv = 1e-5
