# -*- coding: utf-8 mode: shell-script -*-

%Coordinates
 'H' | 0 | 0 | 0
%
AllElectronType = full_gaussian

Radius = 8.0
Spacing = 0.4
fromScratch = yes

TheoryLevel = independent_particles

ConvRelDens = 1e-10
EigensolverTolerance = 1e-11

ExtraStates = 4
%Occupations
0 | 1 | 0 | 0 | 0
%

LCAOComplexYlms = true
%StaticMagneticField
0.0 | 0.0 | 0.5
%

%CurrentThroughPlane
0 | 0 | 0
0 | 1 | 0
0 | 0 | 1
0.15
0 | 130
-130 | 130
%

CalculateSelfInducedMagneticField = yes

%Output
 matrix_elements
 potential | axis_y
%
%OutputMatrixElements
 momentum
 ang_momentum
%
# + one_body + two_body + ks_multipoles

FilterPotentials = filter_none
SCFCalculateForces = no

Debug = trace

PoissonSolver = isf
