             Info: Writing states. 2024/02/02 at 12:48:33


        Info: Finished writing states. 2024/02/02 at 12:48:33

Info: SCF converged in   21 iterations


** Warning:
**   Some of the states are not fully converged!

Info: Number of matrix-vector products:        648
Info: Finished writing information to 'restart/gs'.

             Calculation ended on 2024/02/02 at 12:48:33

                          Walltime:  04.905s

Octopus emitted 4 warnings.
