# helium atom

FromScratch = yes
CalculationMode = gs

Dimensions = 3

# alternatively, we can comment this out when using pseudopotential,
# because octopus would decide which functional to use, depending on the
# pseudopotential
XCFunctional = lda_x + lda_c_pz

Radius = 10.0
Spacing = 0.5

PseudopotentialSet = pseudodojo_lda

%Coordinates
  "He" | 0 | 0 |  0
%

MaximumIter = 100
Eigensolver = rmmdiis

PoissonSolver = fft

ExperimentalFeatures = yes

# to turn on the QEDFT px functional
XCPhotonFunctional = photon_xc_lda

# PhotonXCEnergyMethod = 1: pxLDA (exchange virial relation)
# PhotonXCEnergyMethod = 2: px for one electron (do not use for many electrons)
PhotonXCEnergyMethod = virial

# this is the eta_{c} factor introduced in our manuscript
PhotonXCEtaC = 1.0

%PhotonModes
 0.580084 | 0.5000 | 1 | 0 | 0
%

Debug = info