CalculationMode = gs

%Coordinates
 'H' |  0.717157 | 0 | 0
 'H' | -0.717157 | 0 | 0
%

Spacing = 0.5
Radius = 7

FilterPotentials = filter_none

RestartWrite = no

ExperimentalFeatures = yes
XCDensityCorrection=long_range_x

PoissonSolver = fft
