OFF 110 216 0
-8.80569 -3.80841 -0.980171 
-9.15902 -3.66205 -2.90285 
-8.23938 -1.94151 -0.980171 
-9.85211 3.37497 4.71397 
-10 4.35222 3.91282 
-10 3.65165 4.71397 
-9.15902 3.66205 2.90285 
-9.15902 3.66205 -2.90285 
-10 5.26368 -2.83553 
-8.80569 3.80841 -0.980171 
-10 5.23541 -2.90285 
-8.80569 3.80841 0.980171 
-9.72534 5.52895 -0.980171 
-9.72534 5.52895 0.980171 
-10 -5.26368 -2.83553 
-10 -5.23541 -2.90285 
-9.18079 0 -4.71397 
-9.35025 1.72054 -4.71397 
-8.4306 0 -2.90285 
-8.61447 -1.8669 -2.90285 
-9.35025 -1.72054 -4.71397 
-8.61447 1.8669 -2.90285 
-8.23938 1.94151 0.980171 
-8.61447 1.8669 2.90285 
-8.04815 0 0.980171 
-10 -5.34543 2.64085 
-8.80569 -3.80841 0.980171 
-10 -5.26368 2.83553 
-9.72534 -5.52895 0.980171 
-10 5.86362 -0.980171 
-10 5.86362 0.980171 
-10 5.23541 2.90285 
-9.35025 1.72054 4.71397 
-10 3.31371 4.95354 
-10 2.25378 5.41624 
-8.4306 0 2.90285 
-9.18079 0 4.71397 
-10 0.504938 5.86558 
-10 0 5.94001 
-10 -0.504938 5.86558 
-9.35025 -1.72054 4.71397 
-8.23938 -1.94151 0.980171 
-8.04815 0 -0.980171 
-8.61447 -1.8669 2.90285 
-9.15902 -3.66205 2.90285 
-10 -4.35222 -3.91282 
-10 5.26368 2.83553 
-10 5.34543 -2.64085 
-10 1.5913 -5.70544 
-10 2.25378 -5.41624 
-10 1.5913 5.70544 
-10 -5.23541 2.90285 
-10 -1.5913 5.70544 
-10 -2.25378 5.41624 
-10 -5.34543 -2.64085 
-9.72534 -5.52895 -0.980171 
-10 -1.5913 -5.70544 
-10 -0.504938 -5.86558 
-8.23938 1.94151 -0.980171 
-9.85211 3.37497 -4.71397 
-10 5.34543 2.64085 
-10 3.31371 -4.95354 
-10 -4.35222 3.91282 
-9.85211 -3.37497 4.71397 
-10 -3.65165 4.71397 
-10 -5.86362 0.980171 
-10 -5.86362 -0.980171 
-10 -2.25378 -5.41624 
-10 3.65165 -4.71397 
-9.85211 -3.37497 -4.71397 
-10 -3.65165 -4.71397 
-10 -3.31371 4.95354 
-10 0.504938 -5.86558 
-10 4.35222 -3.91282 
-10 -3.31371 -4.95354 
-10 0 -5.94001 
-11.1943 3.80841 0.980171 
-10.2747 5.52895 0.980171 
-10.841 3.66205 2.90285 
-11.3855 1.8669 2.90285 
-10.6498 1.72054 4.71397 
-11.7606 1.94151 0.980171 
-11.1943 -3.80841 -0.980171 
-11.7606 -1.94151 -0.980171 
-10.841 -3.66205 -2.90285 
-11.5694 0 2.90285 
-10.841 3.66205 -2.90285 
-11.1943 3.80841 -0.980171 
-11.9518 0 -0.980171 
-11.3855 -1.8669 -2.90285 
-10.8192 0 4.71397 
-10.6498 -1.72054 -4.71397 
-10.6498 1.72054 -4.71397 
-10.1479 3.37497 -4.71397 
-10.6498 -1.72054 4.71397 
-11.3855 -1.8669 2.90285 
-10.8192 0 -4.71397 
-10.2747 5.52895 -0.980171 
-11.7606 1.94151 -0.980171 
-10.841 -3.66205 2.90285 
-11.7606 -1.94151 0.980171 
-11.1943 -3.80841 0.980171 
-10.2747 -5.52895 0.980171 
-11.5694 0 -2.90285 
-11.3855 1.8669 -2.90285 
-10.1479 -3.37497 -4.71397 
-11.9518 0 0.980171 
-10.2747 -5.52895 -0.980171 
-10.1479 -3.37497 4.71397 
-10.1479 3.37497 4.71397 
3 0 1 2
3 3 4 5
3 4 3 6
3 7 8 9
3 8 7 10
3 11 12 13
3 12 11 9
3 14 1 0
3 1 14 15
3 16 17 18
3 19 20 18
3 18 17 21
3 22 23 24
3 25 26 27
3 26 25 28
3 13 29 30
3 29 13 12
3 31 4 6
3 32 33 34
3 33 32 3
3 24 23 35
3 23 32 35
3 36 37 38
3 37 36 32
3 39 36 38
3 36 39 40
3 41 42 24
3 42 41 2
3 43 44 41
3 1 15 45
3 1 20 19
3 18 21 42
3 11 6 22
3 6 46 31
3 46 6 11
3 12 47 29
3 17 48 49
3 18 20 16
3 26 2 41
3 2 26 0
3 43 40 44
3 34 50 32
3 27 44 51
3 44 27 26
3 39 52 40
3 52 53 40
3 0 54 14
3 54 0 55
3 20 56 57
3 58 7 9
3 17 59 7
3 11 60 46
3 60 11 13
3 9 47 12
3 47 9 8
3 24 43 41
3 22 6 23
3 17 61 59
3 61 17 49
3 2 1 19
3 6 32 23
3 6 3 32
3 35 32 36
3 36 40 35
3 42 21 58
3 24 58 22
3 58 24 42
3 41 44 26
3 62 51 44
3 62 63 64
3 63 62 44
3 40 63 44
3 65 55 28
3 55 65 66
3 50 37 32
3 22 9 11
3 9 22 58
3 30 60 13
3 20 67 56
3 59 61 68
3 1 69 20
3 45 69 1
3 69 45 70
3 42 19 18
3 2 19 42
3 35 43 24
3 35 40 43
3 71 64 63
3 71 40 53
3 40 71 63
3 5 33 3
3 17 72 48
3 59 73 7
3 73 59 68
3 7 73 10
3 20 74 67
3 74 20 69
3 69 70 74
3 28 0 26
3 0 28 55
3 16 57 75
3 57 16 20
3 16 72 17
3 72 16 75
3 21 7 58
3 21 17 7
3 55 66 54
3 25 65 28
3 76 60 77
3 60 76 46
3 78 79 80
3 76 81 78
3 82 83 84
3 79 85 80
3 86 8 10
3 8 86 87
3 83 88 89
3 90 37 80
3 37 90 38
3 67 91 56
3 34 80 50
3 92 86 93
3 94 85 95
3 73 86 10
3 14 84 15
3 84 14 82
3 15 84 45
3 57 96 75
3 96 57 91
3 47 97 29
3 86 98 87
3 94 95 99
3 95 100 99
3 101 25 27
3 25 101 102
3 96 103 92
3 92 61 49
3 61 92 93
3 98 76 87
3 76 98 81
3 87 47 8
3 47 87 97
3 103 88 104
3 105 84 91
3 48 92 49
3 104 98 86
3 74 91 67
3 91 74 105
3 81 106 79
3 83 106 88
3 106 83 100
3 52 94 53
3 27 99 101
3 99 27 51
3 99 100 101
3 107 101 82
3 101 107 102
3 66 107 54
3 97 30 29
3 30 97 77
3 84 83 89
3 84 89 91
3 88 81 98
3 81 88 106
3 56 91 57
3 89 88 103
3 92 104 86
3 96 72 75
3 72 96 92
3 72 92 48
3 31 78 4
3 90 39 38
3 39 90 94
3 39 94 52
3 78 81 79
3 95 106 100
3 94 71 53
3 71 94 108
3 82 100 83
3 100 82 101
3 71 108 64
3 54 82 14
3 82 54 107
3 45 105 70
3 105 45 84
3 70 105 74
3 87 77 97
3 77 87 76
3 78 46 76
3 46 78 31
3 92 103 104
3 104 88 98
3 79 106 85
3 85 106 95
3 50 80 37
3 90 85 94
3 80 85 90
3 94 99 108
3 25 102 65
3 93 73 68
3 73 93 86
3 61 93 68
3 30 77 60
3 5 109 33
3 109 78 80
3 91 103 96
3 89 103 91
3 109 4 78
3 4 109 5
3 80 33 109
3 33 80 34
3 62 108 99
3 108 62 64
3 62 99 51
3 66 102 107
3 102 66 65
