FromScratch = yes
DisableAccel = yes

CalculationMode = gs

PeriodicDimensions = 3

# lattice parameter is a bit smaller than the equilibrium one
a = 9.2

Spacing = 0.7

BoxShape = parallelepiped
%LatticeParameters
 a | a | a
%

PseudopotentialSet = pseudodojo_lda

# the first Si atom is slighly out of position
%ReducedCoordinates
  "Si" |   0.1       | -0.05     | 0.075
  "Si" |   1/2       | 1/2       | 0.0
  "Si" |   1/2       | 0.0       | 1/2
  "Si" |   0.0       | 1/2       | 1/2
  "Si" |   1/4       | 1/4       | 1/4
  "Si" |   1/4 + 1/2 | 1/4 + 1/2 | 1/4
  "Si" |   1/4 + 1/2 | 1/4       | 1/4 + 1/2
  "Si" |   1/4       | 1/4 + 1/2 | 1/4 + 1/2
%

%KPointsGrid
 2 | 1 | 1
 1/2 | 1/2 | 1/2
%

KPointsUseSymmetries = no
SymmetrizeDensity = yes
ExperimentalFeatures = yes

ExtraStates = 4
ConvRelDens = 1e-7
Eigensolver = chebyshev_filter

%Output
  stress
%

FilterPotentials = filter_none
