CalculationMode = gs
FromScratch = yes

PeriodicDimensions = 3

Spacing = 0.5

a = 6.74
%LatticeParameters
 a | a | a
%

%LatticeVectors
 0.0 | 0.5 | 0.5
 0.5 | 0.0 | 0.5
 0.5 | 0.5 | 0.0
%

%ReducedCoordinates
 "C" | 0.0 | 0.0 | 0.0
 "C" | 1/4 | 1/4 | 1/4
%

PseudopotentialSet = pseudodojo_pbe

nk = 2
%KPointsGrid
  nk |  nk |  nk
%
KPointsUseSymmetries = yes

ExtraStates = 10
SmearingFunction = cold_smearing
smearing = 0.025 *eV

UnitsOutput = ev_angstrom

%Output
 dos
%

PhotoDopingNumElectrons = 0.2
PhotoDopingBand = 5
PhotodopingSmearing = 0.025 *eV
